<?xml version="1.0" encoding="utf-8"?>
<!-- Generator: Adobe Illustrator 24.2.3, SVG Export Plug-In . SVG Version: 6.00 Build 0)  -->
<svg version="1.1" id="Calque_1" xmlns="http://www.w3.org/2000/svg" xmlns:xlink="http://www.w3.org/1999/xlink" x="0px" y="0px"
	 viewBox="0 0 500 298" style="enable-background:new 0 0 500 298;" xml:space="preserve">
<style type="text/css">
	.st0{fill:#003449;}
</style>
<path class="st0" d="M249.7,298c-12.3,0-24.6-4.7-34-14.1L14.1,82.2c-18.8-18.8-18.8-49.2,0-67.9C32.8-4.5,63.2-4.5,82,14.3
	l167.8,167.7L417.5,14.3c18.8-18.8,49.2-18.8,67.9,0c18.8,18.8,18.8,49.2,0,67.9L283.7,283.9C274.3,293.3,262,298,249.7,298z"/>
</svg>
